<svg width="59" height="59" viewBox="0 0 59 59" fill="none" xmlns="http://www.w3.org/2000/svg">
<path d="M29.28 29.28C34.6724 29.28 39.04 24.9124 39.04 19.52C39.04 14.1276 34.6724 9.76 29.28 9.76C23.8876 9.76 19.52 14.1276 19.52 19.52C19.52 24.9124 23.8876 29.28 29.28 29.28ZM29.28 34.16C22.7652 34.16 9.75999 37.4296 9.75999 43.92V48.8H48.8V43.92C48.8 37.4296 35.7948 34.16 29.28 34.16Z" fill="black"/>
</svg>
